New log file opened at Mon Apr 27 21:30:11 BRT 2015 by 3808@ProfLab2-PC
Sending msg to client activator-e4994959-b947-4f22-a8a2-1073285fda83: DetachedLogEvent(LogMessage(debug,sbt server socket logs are in: C:\Users\ProfLab2\Downloads\a\a\SiteJogo\.sbtserver\connections\master.log))
Sending msg to client activator-e4994959-b947-4f22-a8a2-1073285fda83: DetachedLogEvent(LogMessage(debug,sbt client logs are in: C:\Users\ProfLab2\Downloads\a\a\SiteJogo\.sbtserver\connections\activator-e4994959-b947-4f22-a8a2-1073285fda83.log))
Sending msg to client activator-e4994959-b947-4f22-a8a2-1073285fda83: DetachedLogEvent(LogMessage(debug,sbt general server logs are in: C:\Users\ProfLab2\Downloads\a\a\SiteJogo\.sbtserver\master.log))
Reading next message from client.
Got request: ListenToEvents()
Reading next message from client.
Sending msg to client activator-e4994959-b947-4f22-a8a2-1073285fda83: DetachedLogEvent(LogMessage(debug,> --initialize))
Sending msg to client activator-e4994959-b947-4f22-a8a2-1073285fda83: DetachedLogEvent(LogMessage(debug,> initialize))
Sending msg to client activator-e4994959-b947-4f22-a8a2-1073285fda83: DetachedLogEvent(LogMessage(debug,> onFailure load-failed))
Sending msg to client activator-e4994959-b947-4f22-a8a2-1073285fda83: DetachedLogEvent(LogMessage(debug,> boot))
Sending msg to client activator-e4994959-b947-4f22-a8a2-1073285fda83: DetachedLogEvent(LogMessage(debug,> reload))
Sending msg to client activator-e4994959-b947-4f22-a8a2-1073285fda83: DetachedLogEvent(LogMessage(debug,[Loading] Scanning directory C:\Users\ProfLab2\Downloads\a\a\SiteJogo\project))
Sending msg to client activator-e4994959-b947-4f22-a8a2-1073285fda83: DetachedLogEvent(LogMessage(debug,[Loading] Found non-root projects ))
Sending msg to client activator-e4994959-b947-4f22-a8a2-1073285fda83: DetachedLogEvent(LogMessage(debug,[Loading] Done in C:\Users\ProfLab2\Downloads\a\a\SiteJogo\project, returning: ()))
Sending msg to client activator-e4994959-b947-4f22-a8a2-1073285fda83: DetachedLogEvent(LogMessage(debug,deducing auto plugins based on known facts Set(Atom(sbt.plugins.CorePlugin)) and clauses Clauses(List(Clause(Atom(sbt.plugins.JvmPlugin),Set(Atom(sbt.plugins.IvyPlugin))), Clause(Atom(sbt.plugins.JUnitXmlReportPlugin),Set(Atom(sbt.plugins.JvmPlugin))), Clause(Atom(sbt.plugins.CorePlugin),Set(Atom(sbt.plugins.IvyPlugin))), Clause(Atom(sbt.plugins.IvyPlugin),Set(Atom(sbt.plugins.JvmPlugin))), Clause(Atom(sbt.plugins.JvmPlugin),Set(Atom(sbt.plugins.JUnitXmlReportPlugin)))))))
Sending msg to client activator-e4994959-b947-4f22-a8a2-1073285fda83: DetachedLogEvent(LogMessage(debug,  :: deduced result: Matched(sbt.plugins.CorePlugin,sbt.plugins.IvyPlugin,sbt.plugins.JvmPlugin,sbt.plugins.JUnitXmlReportPlugin)))
Sending msg to client activator-e4994959-b947-4f22-a8a2-1073285fda83: DetachedLogEvent(LogMessage(debug,sorting: ns: List(sbt.plugins.CorePlugin, sbt.plugins.IvyPlugin, sbt.plugins.JvmPlugin, sbt.plugins.JUnitXmlReportPlugin)))
Sending msg to client activator-e4994959-b947-4f22-a8a2-1073285fda83: DetachedLogEvent(LogMessage(debug,  :: sorting:: found: List(sbt.plugins.CorePlugin) not found List(sbt.plugins.IvyPlugin, sbt.plugins.JvmPlugin, sbt.plugins.JUnitXmlReportPlugin)))
Sending msg to client activator-e4994959-b947-4f22-a8a2-1073285fda83: DetachedLogEvent(LogMessage(debug,  :: sorting:: found: List(sbt.plugins.CorePlugin, sbt.plugins.IvyPlugin) not found List(sbt.plugins.JvmPlugin, sbt.plugins.JUnitXmlReportPlugin)))
Sending msg to client activator-e4994959-b947-4f22-a8a2-1073285fda83: DetachedLogEvent(LogMessage(debug,  :: sorting:: found: List(sbt.plugins.CorePlugin, sbt.plugins.IvyPlugin, sbt.plugins.JvmPlugin) not found List(sbt.plugins.JUnitXmlReportPlugin)))
Sending msg to client activator-e4994959-b947-4f22-a8a2-1073285fda83: DetachedLogEvent(LogMessage(debug,  :: sorting:: found: List(sbt.plugins.CorePlugin, sbt.plugins.IvyPlugin, sbt.plugins.JvmPlugin, sbt.plugins.JUnitXmlReportPlugin) not found List()))
Sending msg to client activator-e4994959-b947-4f22-a8a2-1073285fda83: DetachedLogEvent(LogMessage(debug,  :: sorted deduced result: List(sbt.plugins.CorePlugin, sbt.plugins.IvyPlugin, sbt.plugins.JvmPlugin, sbt.plugins.JUnitXmlReportPlugin)))
Sending msg to client activator-e4994959-b947-4f22-a8a2-1073285fda83: (3,ReceivedResponse())
Sending msg to client activator-e4994959-b947-4f22-a8a2-1073285fda83: DetachedLogEvent(LogMessage(debug,[Loading] Done in C:\Users\ProfLab2\Downloads\a\a\SiteJogo\project, returning: (sitejogo-build)))
Sending msg to client activator-e4994959-b947-4f22-a8a2-1073285fda83: DetachedLogEvent(LogMessage(info,Loading project definition from C:\Users\ProfLab2\Downloads\a\a\SiteJogo\project))
Sending msg to client activator-e4994959-b947-4f22-a8a2-1073285fda83: DetachedLogEvent(LogMessage(debug,Running task... Cancel: sbt.TaskCancellationStrategy$Null$@6cbc21, check cycles: false))
Sending msg to client activator-e4994959-b947-4f22-a8a2-1073285fda83: DetachedLogEvent(LogStdOut([info] Updating {file:/C:/Users/ProfLab2/Downloads/a/a/SiteJogo/project/}sitejogo-build...))
Sending msg to client activator-e4994959-b947-4f22-a8a2-1073285fda83: DetachedLogEvent(LogMessage(info,Updating {file:/C:/Users/ProfLab2/Downloads/a/a/SiteJogo/project/}sitejogo-build...))
Sending msg to client activator-e4994959-b947-4f22-a8a2-1073285fda83: DetachedLogEvent(LogMessage(debug,Other repositories:))
Sending msg to client activator-e4994959-b947-4f22-a8a2-1073285fda83: DetachedLogEvent(LogMessage(debug,Default repositories:))
Sending msg to client activator-e4994959-b947-4f22-a8a2-1073285fda83: DetachedLogEvent(LogMessage(debug,Using inline dependencies specified in Scala.))
Sending msg to client activator-e4994959-b947-4f22-a8a2-1073285fda83: DetachedLogEvent(LogMessage(debug,:: resolving dependencies :: default#sitejogo-build;0.1-SNAPSHOT))
Sending msg to client activator-e4994959-b947-4f22-a8a2-1073285fda83: DetachedLogEvent(LogMessage(debug,	confs: [compile, runtime, test, provided, optional, compile-internal, runtime-internal, test-internal, plugin, sources, docs, pom, scala-tool]))
Sending msg to client activator-e4994959-b947-4f22-a8a2-1073285fda83: DetachedLogEvent(LogMessage(debug,	validate = true))
Sending msg to client activator-e4994959-b947-4f22-a8a2-1073285fda83: DetachedLogEvent(LogMessage(debug,	refresh = false))
Sending msg to client activator-e4994959-b947-4f22-a8a2-1073285fda83: DetachedLogEvent(LogMessage(debug,resolving dependencies for configuration 'compile'))
Sending msg to client activator-e4994959-b947-4f22-a8a2-1073285fda83: DetachedLogEvent(LogMessage(debug,== resolving dependencies for default#sitejogo-build;0.1-SNAPSHOT [compile]))
Sending msg to client activator-e4994959-b947-4f22-a8a2-1073285fda83: DetachedLogEvent(LogMessage(debug,== resolving dependencies default#sitejogo-build;0.1-SNAPSHOT->com.typesafe.play#sbt-plugin;2.3.8 [compile->default(compile)]))
Sending msg to client activator-e4994959-b947-4f22-a8a2-1073285fda83: DetachedLogEvent(LogStdOut([info] Resolving com.typesafe.play#sbt-plugin;2.3.8 ...))
Sending msg to client activator-e4994959-b947-4f22-a8a2-1073285fda83: DetachedLogEvent(LogMessage(info,Resolving com.typesafe.play#sbt-plugin;2.3.8 ...))
Sending msg to client activator-e4994959-b947-4f22-a8a2-1073285fda83: DetachedLogEvent(LogMessage(debug,sbt-chain: Checking cache for: dependency: com.typesafe.play#sbt-plugin;2.3.8 {compile=[default(compile)]}))
Sending msg to client activator-e4994959-b947-4f22-a8a2-1073285fda83: DetachedLogEvent(LogMessage(debug,sbt-chain: module revision found in cache: com.typesafe.play#sbt-plugin;2.3.8))
Sending msg to client activator-e4994959-b947-4f22-a8a2-1073285fda83: DetachedLogEvent(LogMessage(debug,	found com.typesafe.play#sbt-plugin;2.3.8 in sbt-chain))
Sending msg to client activator-e4994959-b947-4f22-a8a2-1073285fda83: DetachedLogEvent(LogMessage(debug,== resolving dependencies com.typesafe.play#sbt-plugin;2.3.8->com.typesafe.play#routes-compiler_2.10;2.3.8 [compile->default(compile)]))
Sending msg to client activator-e4994959-b947-4f22-a8a2-1073285fda83: DetachedLogEvent(LogStdOut([info] Resolving com.typesafe.play#routes-compiler_2.10;2.3.8 ...))
Sending msg to client activator-e4994959-b947-4f22-a8a2-1073285fda83: DetachedLogEvent(LogMessage(info,Resolving com.typesafe.play#routes-compiler_2.10;2.3.8 ...))
Sending msg to client activator-e4994959-b947-4f22-a8a2-1073285fda83: DetachedLogEvent(LogMessage(debug,sbt-chain: Checking cache for: dependency: com.typesafe.play#routes-compiler_2.10;2.3.8 {compile=[default(compile)]}))
Sending msg to client activator-e4994959-b947-4f22-a8a2-1073285fda83: DetachedLogEvent(LogMessage(debug,sbt-chain: module revision found in cache: com.typesafe.play#routes-compiler_2.10;2.3.8))
Sending msg to client activator-e4994959-b947-4f22-a8a2-1073285fda83: DetachedLogEvent(LogMessage(debug,	found com.typesafe.play#routes-compiler_2.10;2.3.8 in sbt-chain))
Sending msg to client activator-e4994959-b947-4f22-a8a2-1073285fda83: DetachedLogEvent(LogMessage(debug,== resolving dependencies com.typesafe.play#sbt-plugin;2.3.8->com.typesafe.play#routes-compiler_2.10;2.3.8 [compile->runtime]))
Sending msg to client activator-e4994959-b947-4f22-a8a2-1073285fda83: DetachedLogEvent(LogMessage(debug,== resolving dependencies com.typesafe.play#sbt-plugin;2.3.8->com.typesafe.play#routes-compiler_2.10;2.3.8 [compile->compile]))
Sending msg to client activator-e4994959-b947-4f22-a8a2-1073285fda83: DetachedLogEvent(LogMessage(debug,== resolving dependencies com.typesafe.play#routes-compiler_2.10;2.3.8->org.scala-lang#scala-library;2.10.4 [compile->master(compile)]))
Sending msg to client activator-e4994959-b947-4f22-a8a2-1073285fda83: DetachedLogEvent(LogStdOut([info] Resolving org.scala-lang#scala-library;2.10.4 ...))
Sending msg to client activator-e4994959-b947-4f22-a8a2-1073285fda83: DetachedLogEvent(LogMessage(info,Resolving org.scala-lang#scala-library;2.10.4 ...))
Sending msg to client activator-e4994959-b947-4f22-a8a2-1073285fda83: DetachedLogEvent(LogMessage(debug,sbt-chain: Checking cache for: dependency: org.scala-lang#scala-library;2.10.4 {compile=[compile(*), master(compile)], runtime=[runtime(*)]}))
Sending msg to client activator-e4994959-b947-4f22-a8a2-1073285fda83: DetachedLogEvent(LogMessage(debug,sbt-chain: module revision found in cache: org.scala-lang#scala-library;2.10.4))
Sending msg to client activator-e4994959-b947-4f22-a8a2-1073285fda83: DetachedLogEvent(LogMessage(debug,	found org.scala-lang#scala-library;2.10.4 in sbt-chain))
Sending msg to client activator-e4994959-b947-4f22-a8a2-1073285fda83: DetachedLogEvent(LogMessage(debug,	[2.10.4] org.scala-lang#scala-library;2.10.4))
Sending msg to client activator-e4994959-b947-4f22-a8a2-1073285fda83: DetachedLogEvent(LogMessage(debug,== resolving dependencies com.typesafe.play#routes-compiler_2.10;2.3.8->org.scala-lang#scala-library;2.10.4 [compile->compile(*)]))
Sending msg to client activator-e4994959-b947-4f22-a8a2-1073285fda83: DetachedLogEvent(LogMessage(debug,== resolving dependencies com.typesafe.play#routes-compiler_2.10;2.3.8->org.scala-lang#scala-library;2.10.4 [compile->runtime(*)]))
Sending msg to client activator-e4994959-b947-4f22-a8a2-1073285fda83: DetachedLogEvent(LogMessage(debug,== resolving dependencies com.typesafe.play#routes-compiler_2.10;2.3.8->org.scala-lang#scala-library;2.10.4 [compile->compile]))
Sending msg to client activator-e4994959-b947-4f22-a8a2-1073285fda83: DetachedLogEvent(LogMessage(debug,== resolving dependencies com.typesafe.play#routes-compiler_2.10;2.3.8->commons-io#commons-io;2.0.1 [compile->master(compile)]))
Sending msg to client activator-e4994959-b947-4f22-a8a2-1073285fda83: DetachedLogEvent(LogStdOut([info] Resolving commons-io#commons-io;2.0.1 ...))
Sending msg to client activator-e4994959-b947-4f22-a8a2-1073285fda83: DetachedLogEvent(LogMessage(info,Resolving commons-io#commons-io;2.0.1 ...))
Sending msg to client activator-e4994959-b947-4f22-a8a2-1073285fda83: DetachedLogEvent(LogMessage(debug,sbt-chain: Checking cache for: dependency: commons-io#commons-io;2.0.1 {compile=[compile(*), master(compile)], runtime=[runtime(*)]}))
Sending msg to client activator-e4994959-b947-4f22-a8a2-1073285fda83: DetachedLogEvent(LogMessage(debug,sbt-chain: module revision found in cache: commons-io#commons-io;2.0.1))
Sending msg to client activator-e4994959-b947-4f22-a8a2-1073285fda83: DetachedLogEvent(LogMessage(debug,	found commons-io#commons-io;2.0.1 in sbt-chain))
Sending msg to client activator-e4994959-b947-4f22-a8a2-1073285fda83: DetachedLogEvent(LogMessage(debug,== resolving dependencies com.typesafe.play#routes-compiler_2.10;2.3.8->commons-io#commons-io;2.0.1 [compile->compile(*)]))
Sending msg to client activator-e4994959-b947-4f22-a8a2-1073285fda83: DetachedLogEvent(LogMessage(debug,== resolving dependencies com.typesafe.play#routes-compiler_2.10;2.3.8->commons-io#commons-io;2.0.1 [compile->runtime(*)]))
Sending msg to client activator-e4994959-b947-4f22-a8a2-1073285fda83: DetachedLogEvent(LogMessage(debug,== resolving dependencies com.typesafe.play#routes-compiler_2.10;2.3.8->commons-io#commons-io;2.0.1 [compile->compile]))
Sending msg to client activator-e4994959-b947-4f22-a8a2-1073285fda83: DetachedLogEvent(LogMessage(debug,== resolving dependencies com.typesafe.play#routes-compiler_2.10;2.3.8->org.scala-lang#scala-library;2.10.4 [runtime->runtime(*)]))
Sending msg to client activator-e4994959-b947-4f22-a8a2-1073285fda83: DetachedLogEvent(LogMessage(debug,== resolving dependencies com.typesafe.play#routes-compiler_2.10;2.3.8->org.scala-lang#scala-library;2.10.4 [runtime->compile]))
Sending msg to client activator-e4994959-b947-4f22-a8a2-1073285fda83: DetachedLogEvent(LogMessage(debug,== resolving dependencies com.typesafe.play#routes-compiler_2.10;2.3.8->commons-io#commons-io;2.0.1 [runtime->runtime(*)]))
Sending msg to client activator-e4994959-b947-4f22-a8a2-1073285fda83: DetachedLogEvent(LogMessage(debug,== resolving dependencies com.typesafe.play#routes-compiler_2.10;2.3.8->commons-io#commons-io;2.0.1 [runtime->compile]))
Sending msg to client activator-e4994959-b947-4f22-a8a2-1073285fda83: DetachedLogEvent(LogMessage(debug,== resolving dependencies com.typesafe.play#sbt-plugin;2.3.8->com.typesafe.play#routes-compiler_2.10;2.3.8 [compile->master]))
Sending msg to client activator-e4994959-b947-4f22-a8a2-1073285fda83: DetachedLogEvent(LogMessage(debug,== resolving dependencies com.typesafe.play#sbt-plugin;2.3.8->com.typesafe.play#sbt-run-support_2.10;2.3.8 [compile->default(compile)]))
Sending msg to client activator-e4994959-b947-4f22-a8a2-1073285fda83: DetachedLogEvent(LogStdOut([info] Resolving com.typesafe.play#sbt-run-support_2.10;2.3.8 ...))
Sending msg to client activator-e4994959-b947-4f22-a8a2-1073285fda83: DetachedLogEvent(LogMessage(info,Resolving com.typesafe.play#sbt-run-support_2.10;2.3.8 ...))
Sending msg to client activator-e4994959-b947-4f22-a8a2-1073285fda83: DetachedLogEvent(LogMessage(debug,sbt-chain: Checking cache for: dependency: com.typesafe.play#sbt-run-support_2.10;2.3.8 {compile=[default(compile)]}))
Sending msg to client activator-e4994959-b947-4f22-a8a2-1073285fda83: DetachedLogEvent(LogMessage(debug,sbt-chain: module revision found in cache: com.typesafe.play#sbt-run-support_2.10;2.3.8))
Sending msg to client activator-e4994959-b947-4f22-a8a2-1073285fda83: DetachedLogEvent(LogMessage(debug,	found com.typesafe.play#sbt-run-support_2.10;2.3.8 in sbt-chain))
Sending msg to client activator-e4994959-b947-4f22-a8a2-1073285fda83: DetachedLogEvent(LogMessage(debug,== resolving dependencies com.typesafe.play#sbt-plugin;2.3.8->com.typesafe.play#sbt-run-support_2.10;2.3.8 [compile->runtime]))
Sending msg to client activator-e4994959-b947-4f22-a8a2-1073285fda83: DetachedLogEvent(LogMessage(debug,== resolving dependencies com.typesafe.play#sbt-plugin;2.3.8->com.typesafe.play#sbt-run-support_2.10;2.3.8 [compile->compile]))
Sending msg to client activator-e4994959-b947-4f22-a8a2-1073285fda83: DetachedLogEvent(LogMessage(debug,== resolving dependencies com.typesafe.play#sbt-run-support_2.10;2.3.8->org.scala-lang#scala-library;2.10.4 [compile->master(compile)]))
Sending msg to client activator-e4994959-b947-4f22-a8a2-1073285fda83: DetachedLogEvent(LogMessage(debug,== resolving dependencies com.typesafe.play#sbt-run-support_2.10;2.3.8->org.scala-lang#scala-library;2.10.4 [compile->compil